{
    "name": "python-test-dependencies",
    "buildsystem": "simple",
    "build-commands": [
        "pip3 install --verbose --exists-action=i --no-index --find-links=\"file://${PWD}\" --prefix=${FLATPAK_DEST} \"exceptiongroup\" \"tomli\" \"pytest\" --no-build-isolation"
    ],
    "sources": [
        {
            "type": "file",
            "url": "https://files.pythonhosted.org/packages/b8/9a/5028fd52db10e600f1c4674441b968cf2ea4959085bfb5b99fb1250e5f68/exceptiongroup-1.2.0-py3-none-any.whl",
            "sha256": "4bfd3996ac73b41e9b9628b04e079f193850720ea5945fc96a08633c66912f14",
            "x-checker-data": {
                "type": "pypi",
                "name": "exceptiongroup",
                "packagetype": "bdist_wheel"
            }
        },
        {
            "type": "file",
            "url": "https://files.pythonhosted.org/packages/97/75/10a9ebee3fd790d20926a90a2547f0bf78f371b2f13aa822c759680ca7b9/tomli-2.0.1-py3-none-any.whl",
            "sha256": "939de3e7a6161af0c887ef91b7d41a53e7c5a1ca976325f429cb46ea9bc30ecc",
            "x-checker-data": {
                "type": "pypi",
                "name": "tomli",
                "packagetype": "bdist_wheel"
            }
        },
		{
            "type": "file",
            "url": "https://files.pythonhosted.org/packages/ef/a6/62565a6e1cf69e10f5727360368e451d4b7f58beeac6173dc9db836a5b46/iniconfig-2.0.0-py3-none-any.whl",
            "sha256": "b6a85871a79d2e3b22d2d1b94ac2824226a63c6b741c88f7ae975f18b6778374",
            "x-checker-data": {
                "type": "pypi",
                "name": "iniconfig",
                "packagetype": "bdist_wheel"
            }
        },
        {
            "type": "file",
            "url": "https://files.pythonhosted.org/packages/a5/5b/0cc789b59e8cc1bf288b38111d002d8c5917123194d45b29dcdac64723cc/pluggy-1.4.0-py3-none-any.whl",
            "sha256": "7db9f7b503d67d1c5b95f59773ebb58a8c1c288129a88665838012cfb07b8981",
            "x-checker-data": {
                "type": "pypi",
                "name": "pluggy",
                "packagetype": "bdist_wheel"
            }
        },
        {
            "type": "file",
            "url": "https://files.pythonhosted.org/packages/4d/7e/c79cecfdb6aa85c6c2e3cf63afc56d0f165f24f5c66c03c695c4d9b84756/pytest-8.1.1-py3-none-any.whl",
            "sha256": "2a8386cfc11fa9d2c50ee7b2a57e7d898ef90470a7a34c4b949ff59662bb78b7",
            "x-checker-data": {
                "type": "pypi",
                "name": "pytest",
                "packagetype": "bdist_wheel"
            }
        }
    ]
}